Analysis of World Fairs: Visitor Count Predictions
…
The worlds_fairs.csv dataset contains data about world’s fairs around the globe from the year 1851 up until 2022. In the exploratory data analysis (EDA) we see, that there are 6 character variables and 8 numeric variables in the dataset. We also see a quite a lot of missing values for multiple numeric variables. For further analysis the relevant numeric variables are: cost (cost), visitor count (visitors), area of the fair (area) and the number of attending countries (attending_countries).

Exploratory Plots

# Grouping the data by country and calculating the total cost
country_costs <- data_raw |>
  group_by(country) |>
  summarise(total_cost = sum(cost, na.rm = TRUE)) |>
  arrange(desc(total_cost))

country_costs

# A tibble: 24 × 2
   country                    total_cost
   <chr>                           <dbl>
 1 People's Republic of China       4200
 2 Germany                          3400
 3 France                           3336
 4 United States                    2916
 5 Belgium                          2794
 6 South Korea                      1769
 7 Canada                            742
 8 Australia                         625
 9 United Kingdom                    167
10 Austria-Hungary                    95
# ℹ 14 more rows
…
# Grouping the data by country and calculating the total cost
country_visitors <- data_raw |>
  group_by(country) |>
  summarise(total_visitors = sum(visitors, na.rm = TRUE)) |>
  arrange(desc(total_visitors))

country_visitors

# A tibble: 24 × 2
   country                    total_visitors
   <chr>                               <dbl>
 1 United States                       200. 
 2 France                              151. 
 3 Japan                               110. 
 4 Belgium                              98.3
 5 People's Republic of China           73.1
 6 Canada                               72.4
 7 Spain                                55.6
 8 Italy                                46  
 9 United Arab Emirates                 24.1
10 South Korea                          22.7
# ℹ 14 more rows
…
